FullDataParsingAndAnalysis
…
LIMSFullDF%>%
  group_by(Site)%>%
  summarise(n=n(),Dur=max(Date)-min(Date),MeanP=mean(Pop,na.rm=TRUE))%>%
  arrange(desc(MeanP))

## # A tibble: 68 x 4
##    Site                         n Dur        MeanP
##    <chr>                    <int> <drtn>     <dbl>
##  1 Madison                    189 252 days 380000 
##  2 Madison-P11-SW              36 133 days 380000 
##  3 Madison-P18-NE              34 133 days 380000 
##  4 Madison-P2-Central          38 133 days 380000 
##  5 Madison-P7-SE               36 133 days 380000 
##  6 Madison-P7-SE and P18-NE     1   0 days 380000 
##  7 Madison-P8-West             37 133 days 380000 
##  8 Kenosha                     97 252 days 122000 
##  9 La Crosse                   66 252 days  85000 
## 10 Janesville                  66 252 days  81705.
## # ... with 58 more rows
…
