TSAnalysis
…
MadLIMsdata

## # A tibble: 287 x 6
##    Site    Date          N1    N2     PMMoV   BCoV
##    <chr>   <date>     <dbl> <dbl>     <dbl>  <dbl>
##  1 Madison 2020-09-11   NaN   NaN      NaN  NaN   
##  2 Madison 2020-09-12   NaN   NaN      NaN  NaN   
##  3 Madison 2020-09-13   NaN   NaN      NaN  NaN   
##  4 Madison 2020-09-14   NaN   NaN      NaN  NaN   
##  5 Madison 2020-09-15 63618 32447 25753384. NaN   
##  6 Madison 2020-09-16 63618 32447 25753384. NaN   
##  7 Madison 2020-09-17 63618 32447 25753384. NaN   
##  8 Madison 2020-09-18 63618 32447 25753384. NaN   
##  9 Madison 2020-09-19 37530 20725 33360845.   0.27
## 10 Madison 2020-09-20 37530 20725 33360845.   0.27
## # ... with 277 more rows

LIMSFullDF%>%
  filter(Site=="Madison")

## # A tibble: 215 x 10
##    Date       Site      BCoV    N1 N1Error    N2 N2Error    PMMoV   Pop FlowRate
##    <date>     <chr>    <dbl> <dbl>   <dbl> <dbl>   <dbl>    <dbl> <dbl>    <dbl>
##  1 2020-09-15 Madis~ NA      63618    5938 32447    4069   2.58e7 3.8e5     44.8
##  2 2020-09-19 Madis~  0.27   11442    1619  9003    3347   4.10e7 3.8e5     46.7
##  3 2020-09-22 Madis~  1.09   39145    2835  8102    1902   2.25e7 3.8e5     41.5
##  4 2020-09-25 Madis~  0.777  28553    2132  1210     291   2.67e7 3.8e5     41.1
##  5 2020-09-24 Madis~  0.0731 16743    7255  4437    1831   2.11e7 3.8e5     41.5
##  6 2020-09-23 Madis~  0.274  30509     278  7419    2855   2.20e7 3.8e5     41.6
##  7 2020-09-28 Madis~  0.172  22794    4518  2281    1719   4.04e7 3.8e5     41.0
##  8 2020-09-29 Madis~  0.151  25014    7042 10209    3640   2.86e7 3.8e5     41.3
##  9 2020-10-02 Madis~  0.437  38687    6160 30103    4577   2.67e7 3.8e5     39.7
## 10 2020-10-01 Madis~  0.467  17950    1974 18718    3152   9.38e6 3.8e5     40.1
## # ... with 205 more rows
…
