HFGUpdatedData
…
## [1] 0.2171373

## # A tibble: 2,880 x 15
##    Site   repName    Date       `Filter replicat~ Well   N1Ct     N1 N1LOD  N2Ct
##    <chr>  <chr>      <date>     <chr>             <chr> <dbl>  <dbl> <lgl> <dbl>
##  1 Hudson Hudson (M~ 2021-01-25 1                 1      33.2  70268 FALSE  33.7
##  2 Hudson Hudson (M~ 2021-01-25 1                 2      31.9 171547 FALSE  32.9
##  3 Hudson Hudson (M~ 2021-01-25 1                 3      32.9  88856 FALSE  33.2
##  4 Hudson Hudson (M~ 2021-01-25 2                 1      32.2 138137 FALSE  32.1
##  5 Hudson Hudson (M~ 2021-01-25 2                 2      31.9 168132 FALSE  32.2
##  6 Hudson Hudson (M~ 2021-01-25 2                 3      32.7  98634 FALSE  32.9
##  7 Hudson Hudson (M~ 2021-01-25 3                 1      32.4 123509 FALSE  32.4
##  8 Hudson Hudson (M~ 2021-01-25 3                 2      32.6 107217 FALSE  32.9
##  9 Hudson Hudson (M~ 2021-01-25 3                 3      32.8  93576 FALSE  32.4
## 10 Hudson Hudson (T~ 2021-01-26 1                 1      34.1  40919 FALSE  33.8
## # ... with 2,870 more rows, and 6 more variables: N2 <dbl>, N2LOD <lgl>,
## #   PMMOVCT <dbl>, PMMoV <dbl>, Pct_BCoV <dbl>, AVG <dbl>
…
