SheddingLagDistribution
…
## # A tibble: 283 x 19
## # Groups:   Site [1]
##    Date       Site    Cases Tests Per_pos Cases.Rolled Tests.Rolled Per_pos.Rolled
##    <date>     <chr>   <int> <int>   <dbl>        <dbl>        <dbl>          <dbl>
##  1 2020-09-15 Madison    80   968    8.26         152.         700.           21.7
##  2 2020-09-16 Madison    93   877   10.6          155.         700.           22.1
##  3 2020-09-17 Madison   217  2801    7.75         166.         850.           19.5
##  4 2020-09-18 Madison   177  2015    8.78         168.         952.           17.7
##  5 2020-09-19 Madison   143  2098    6.82         168.        1057            15.9
##  6 2020-09-20 Madison   141  1232   11.4          168.        1082.           15.6
##  7 2020-09-21 Madison    63   957    6.58         167.        1094.           15.3
##  8 2020-09-22 Madison    48  2370    2.03         158.        1243.           12.7
##  9 2020-09-23 Madison    71  1040    6.83         157.        1264.           12.4
## 10 2020-09-24 Madison   128   969   13.2          138.        1260.           10.9
## # ... with 273 more rows, and 11 more variables: SLDCases <dbl>, BCoV <dbl>,
## #   N1 <dbl>, N1Error <int>, N2 <dbl>, N2Error <int>, PMMoV <dbl>, Pop <int>,
## #   FlowRate <dbl>, N1Roll <dbl>, LoessN1 <dbl>
…
