WasteWater Analysis 2.0 Extended
…
Proof smoothing works

LatCaseDFRoll%>%
  select(Date,Site,Cases)%>%
  filter(Site=="MMSD-P18")

## # A tibble: 439 x 3
##    Date       Site      Cases
##    <date>     <chr>     <dbl>
##  1 2020-04-11 MMSD-P18 NaN   
##  2 2020-04-12 MMSD-P18   2   
##  3 2020-04-13 MMSD-P18   4.5 
##  4 2020-04-14 MMSD-P18   3   
##  5 2020-04-15 MMSD-P18   2.5 
##  6 2020-04-16 MMSD-P18   2   
##  7 2020-04-17 MMSD-P18   1.83
##  8 2020-04-18 MMSD-P18   1.86
##  9 2020-04-19 MMSD-P18   1.62
## 10 2020-04-20 MMSD-P18   1.56
## # ... with 429 more rows
…
